…
# Call analysis

The following counts are all from explicit calls to your package, e.g.
`pkg::foo()`.

## Packages with most calls

These are generally the packages which are the heaviest users of your
package.

``` r
calls %>% count(pkg) %>% arrange(desc(n))
```

    ## # A tibble: 81 x 2
    ##    pkg                n
    ##    <chr>          <int>
    ##  1 adapr             21
    ##  2 workflowr         16
    ##  3 testthis          15
    ##  4 RSuite            14
    ##  5 testthat          14
    ##  6 RxODE             13
    ##  7 pkgmaker          12
    ##  8 packagedocs       11
    ##  9 exampletestr      10
    ## 10 understandBPMN    10
    ## # ... with 71 more rows
…
    ##  [1] "uavRmp"              "Orcs"                "wru"                
    ##  [4] "RSuite"              "understandBPMN"      "Ricetl"             
    ##  [7] "reproducible"        "soilcarbon"          "populationPDXdesign"
    ## [10] "creditr"

## Pkgs with most functions imported

``` r
selective_imports %>% count(pkg) %>% arrange(desc(n))
```

    ## # A tibble: 24 x 2
    ##    pkg                     n
    ##    <chr>               <int>
    ##  1 DataPackageR            4
    ##  2 bisectr                 3
    ##  3 dynutils                2
    ##  4 easypackages            2
    ##  5 githubinstall           2
    ##  6 microsamplingDesign     2
    ##  7 msgtools                2
    ##  8 packagedocs             2
    ##  9 rbundler                2
    ## 10 teachingApps            2
    ## # ... with 14 more rows
…
