…
# Call analysis

The following counts are all from explicit calls to your package, e.g.
`pkg::foo()`.

## Packages with most calls

These are generally the packages which are the heaviest users of your
package.

``` r
calls %>% count(pkg) %>% arrange(desc(n))
```

    ## # A tibble: 700 x 2
    ##    pkg                  n
    ##    <chr>            <int>
    ##  1 landscapemetrics  1603
    ##  2 DiagrammeR        1136
    ##  3 xpose              444
    ##  4 datasus            350
    ##  5 tidyhydat          340
    ##  6 ggstatsplot        256
    ##  7 rubias             251
    ##  8 atlantistools      245
    ##  9 heemod             230
    ## 10 tsibble            205
    ## # ... with 690 more rows
…
## Pkgs with most functions imported

``` r
selective_imports %>% count(pkg) %>% arrange(desc(n))
```

    ## # A tibble: 398 x 2
    ##    pkg                n
    ##    <chr>          <int>
    ##  1 radiant           62
    ##  2 srvyr             54
    ##  3 statar            46
    ##  4 sugrrants         40
    ##  5 genogeographer    38
    ##  6 DiagrammeR        37
    ##  7 tidygraph         37
    ##  8 tigger            32
    ##  9 sparklyr          30
    ## 10 alakazam          29
    ## # ... with 388 more rows
…
