…
# Call analysis

The following counts are all from explicit calls to your package, e.g.
`pkg::foo()`.

## Packages with most calls

These are generally the packages which are the heaviest users of your
package.

``` r
calls %>% count(pkg) %>% arrange(desc(n))
```

    ## # A tibble: 171 x 2
    ##    pkg              n
    ##    <chr>        <int>
    ##  1 DiagrammeR     271
    ##  2 ggstatsplot    175
    ##  3 sparklyr       156
    ##  4 healthcareai    90
    ##  5 tailr           89
    ##  6 pointblank      72
    ##  7 driftR          69
    ##  8 pmatch          69
    ##  9 stability       58
    ## 10 sealr           53
    ## # ... with 161 more rows
…
## Pkgs with most functions imported

``` r
selective_imports %>% count(pkg) %>% arrange(desc(n))
```

    ## # A tibble: 158 x 2
    ##    pkg               n
    ##    <chr>         <int>
    ##  1 DeclareDesign    35
    ##  2 fabricatr        15
    ##  3 tidybayes        15
    ##  4 ggplot2          14
    ##  5 tidyhydat        13
    ##  6 tidygraph        12
    ##  7 recipes          10
    ##  8 DesignLibrary     9
    ##  9 estimatr          9
    ## 10 mosaicCore        9
    ## # ... with 148 more rows
…
