…
# Call analysis

The following counts are all from explicit calls to your package, e.g.
`pkg::foo()`.

## Reverse dependencies with most calls

These are generally the reverse dependencies which are the heaviest
users of your package.

``` r
calls %>% count(pkg) %>% arrange(desc(n))
```

    ## # A tibble: 80 x 2
    ##    pkg                n
    ##    <chr>          <int>
    ##  1 testthat          25
    ##  2 adapr             21
    ##  3 testthis          15
    ##  4 RSuite            14
    ##  5 RxODE             13
    ##  6 pkgmaker          12
    ##  7 packagedocs       11
    ##  8 exampletestr      10
    ##  9 understandBPMN    10
    ## 10 installr           9
    ## # ... with 70 more rows
…
    ##  [1] "uavRmp"              "Orcs"                "wru"                
    ##  [4] "RSuite"              "understandBPMN"      "Ricetl"             
    ##  [7] "reproducible"        "soilcarbon"          "populationPDXdesign"
    ## [10] "creditr"

## Reverse dependencies with the most functions imported

``` r
selective_imports %>% count(pkg) %>% arrange(desc(n))
```

    ## # A tibble: 23 x 2
    ##    pkg                     n
    ##    <chr>               <int>
    ##  1 DataPackageR            4
    ##  2 bisectr                 3
    ##  3 dynutils                2
    ##  4 easypackages            2
    ##  5 githubinstall           2
    ##  6 microsamplingDesign     2
    ##  7 packagedocs             2
    ##  8 rbundler                2
    ##  9 teachingApps            2
    ## 10 BioInstaller            1
    ## # ... with 13 more rows
…
