…
# Call analysis

The following counts are all from explicit calls to your package, e.g.
`pkg::foo()`.

## Reverse dependencies with most calls

These are generally the reverse dependencies which are the heaviest
users of your package.

``` r
calls %>% count(pkg) %>% arrange(desc(n))
```

    ## # A tibble: 701 x 2
    ##    pkg                  n
    ##    <chr>            <int>
    ##  1 landscapemetrics  1603
    ##  2 DiagrammeR        1124
    ##  3 xpose              443
    ##  4 datasus            350
    ##  5 tidyhydat          327
    ##  6 atlantistools      271
    ##  7 ggstatsplot        256
    ##  8 rubias             251
    ##  9 heemod             230
    ## 10 tsibble            205
    ## # ... with 691 more rows
…
## Reverse dependencies with the most functions imported

``` r
selective_imports %>% count(pkg) %>% arrange(desc(n))
```

    ## # A tibble: 398 x 2
    ##    pkg                n
    ##    <chr>          <int>
    ##  1 radiant           62
    ##  2 srvyr             54
    ##  3 statar            46
    ##  4 sugrrants         40
    ##  5 genogeographer    38
    ##  6 DiagrammeR        37
    ##  7 tidygraph         37
    ##  8 tigger            32
    ##  9 sparklyr          30
    ## 10 alakazam          29
    ## # ... with 388 more rows
…
