…
# Call analysis

The following counts are all from explicit calls to your package, e.g.
`pkg::foo()`.

## Reverse dependencies with most calls

These are generally the reverse dependencies which are the heaviest
users of your package.

``` r
calls %>% count(pkg) %>% arrange(desc(n))
```

    ## # A tibble: 59 x 2
    ##    pkg            n
    ##    <chr>      <int>
    ##  1 febr          88
    ##  2 RInno         67
    ##  3 sealr         60
    ##  4 DiagrammeR    32
    ##  5 postal        30
    ##  6 walmartAPI    26
    ##  7 driftR        23
    ##  8 mosaic        18
    ##  9 riingo        18
    ## 10 humanize      17
    ## # ... with 49 more rows
…
## Reverse dependencies with full imports

2 reverse dependencies have ‘full’ imports, with `import(pkg)` in their
NAMESPACE. It is difficult to determine function usage of these
packages.

    ## [1] "configr" "togglr"

## Reverse dependencies with the most functions imported

``` r
selective_imports %>% count(pkg) %>% arrange(desc(n))
```

    ## # A tibble: 36 x 2
    ##    pkg             n
    ##    <chr>       <int>
    ##  1 radiant         3
    ##  2 dials           2
    ##  3 fiery           2
    ##  4 googledrive     2
    ##  5 rtypeform       2
    ##  6 textclean       2
    ##  7 biolink         1
    ##  8 bjscrapeR       1
    ##  9 blastula        1
    ## 10 blorr           1
    ## # ... with 26 more rows
…
