…
# Call analysis

The following counts are all from explicit calls to your package, e.g.
`pkg::foo()`.

## Reverse dependencies with most calls

These are generally the reverse dependencies which are the heaviest
users of your package.

``` r
calls %>% count(pkg) %>% arrange(desc(n))
```

    ## # A tibble: 172 x 2
    ##    pkg              n
    ##    <chr>        <int>
    ##  1 DiagrammeR     304
    ##  2 ggstatsplot    175
    ##  3 sparklyr       155
    ##  4 pmatch          94
    ##  5 healthcareai    90
    ##  6 tailr           89
    ##  7 pointblank      72
    ##  8 driftR          69
    ##  9 stability       58
    ## 10 sealr           53
    ## # ... with 162 more rows
…
## Reverse dependencies with the most functions imported

``` r
selective_imports %>% count(pkg) %>% arrange(desc(n))
```

    ## # A tibble: 159 x 2
    ##    pkg               n
    ##    <chr>         <int>
    ##  1 DeclareDesign    35
    ##  2 tidybayes        30
    ##  3 fabricatr        15
    ##  4 ggplot2          14
    ##  5 tidyhydat        13
    ##  6 tidygraph        12
    ##  7 recipes          10
    ##  8 DesignLibrary     9
    ##  9 estimatr          9
    ## 10 mosaicCore        9
    ## # ... with 149 more rows
…
